STAT 697D Mini Project Model
…
type.count <- MRC.clean %>%
  group_by(tier_name) %>%
  mutate(n = sum(count)) %>%
  group_by(type) %>%
  mutate(freq = n / sum(n)) %>%
  select(type, tier_name, freq)

type.count

## # A tibble: 26,097 x 3
## # Groups:   type [3]
##     type tier_name               freq
##    <int> <chr>                  <dbl>
##  1     3 Two-year for-profit 0.000350
##  2     3 Two-year for-profit 0.000350
##  3     3 Two-year for-profit 0.000350
##  4     3 Two-year for-profit 0.000350
##  5     3 Two-year for-profit 0.000350
##  6     3 Two-year for-profit 0.000350
##  7     3 Two-year for-profit 0.000350
##  8     3 Two-year for-profit 0.000350
##  9     3 Two-year for-profit 0.000350
## 10     3 Two-year for-profit 0.000350
## # ... with 26,087 more rows
…
